%YAML 1.1
%TAG !u! tag:unity3d.com,2011:
--- !u!241 &24100000
AudioMixerController:
  m_ObjectHideFlags: 0
  m_PrefabParentObject: {fileID: 0}
  m_PrefabInternal: {fileID: 0}
  m_Name: MasterMixer
  m_OutputGroup: {fileID: 0}
  m_MasterGroup: {fileID: 24300001}
  m_Snapshots:
  - {fileID: 24500003}
  - {fileID: 24519918}
  m_StartSnapshot: {fileID: 24500003}
  m_SuspendThreshold: -80
  m_EnableSuspend: 1
  m_UpdateMode: 0
  m_ExposedParameters:
  - guid: 4570643c44b0a4ed280458a81f91cf1e
    name: musicVol
  - guid: 1e3a377f854de43b7a3e47634a4b05bc
    name: sfxVol
  m_AudioMixerGroupViews:
  - guids:
    - 5c695f713377e4ddb998c4060c885188
    - 2502a5aad14784b1586e04a58d82abe3
    - 9026203d423ca421185dfbf9561b4b2c
    name: View
  m_CurrentViewIndex: 0
  m_TargetSnapshot: {fileID: 24500003}
--- !u!243 &24300001
AudioMixerGroupController:
  m_ObjectHideFlags: 0
  m_PrefabParentObject: {fileID: 0}
  m_PrefabInternal: {fileID: 0}
  m_Name: Master
  m_AudioMixer: {fileID: 24100000}
  m_GroupID: 5c695f713377e4ddb998c4060c885188
  m_Children:
  - {fileID: 24301952}
  - {fileID: 24324684}
  m_Volume: b2cc95b5d75b5428a8f51d8061ebe927
  m_Pitch: 5fb8eb5f3c1c54684bedb56b663743f5
  m_Effects:
  - {fileID: 24400002}
  m_UserColorIndex: 0
  m_Mute: 0
  m_Solo: 0
  m_BypassEffects: 0
--- !u!243 &24301952
AudioMixerGroupController:
  m_ObjectHideFlags: 0
  m_PrefabParentObject: {fileID: 0}
  m_PrefabInternal: {fileID: 0}
  m_Name: SoundFx
  m_AudioMixer: {fileID: 24100000}
  m_GroupID: 9026203d423ca421185dfbf9561b4b2c
  m_Children: []
  m_Volume: 1e3a377f854de43b7a3e47634a4b05bc
  m_Pitch: 631bb5cafd88844b3bace4c8903eb759
  m_Effects:
  - {fileID: 24437336}
  m_UserColorIndex: 0
  m_Mute: 0
  m_Solo: 0
  m_BypassEffects: 0
--- !u!243 &24324684
AudioMixerGroupController:
  m_ObjectHideFlags: 0
  m_PrefabParentObject: {fileID: 0}
  m_PrefabInternal: {fileID: 0}
  m_Name: Music
  m_AudioMixer: {fileID: 24100000}
  m_GroupID: 2502a5aad14784b1586e04a58d82abe3
  m_Children: []
  m_Volume: 4570643c44b0a4ed280458a81f91cf1e
  m_Pitch: 661c39679685a40b281fbc4b713d4a20
  m_Effects:
  - {fileID: 24419350}
  m_UserColorIndex: 0
  m_Mute: 0
  m_Solo: 0
  m_BypassEffects: 0
--- !u!244 &24400002
AudioMixerEffectController:
  m_ObjectHideFlags: 3
  m_PrefabParentObject: {fileID: 0}
  m_PrefabInternal: {fileID: 0}
  m_Name: 
  m_EffectID: 853f0ee8e72974191afd77f6d4e509c5
  m_EffectName: Attenuation
  m_MixLevel: 2b2f13523a0ad4c65ad2d159681a09e1
  m_Parameters: []
  m_SendTarget: {fileID: 0}
  m_EnableWetMix: 0
  m_Bypass: 0
--- !u!244 &24419350
AudioMixerEffectController:
  m_ObjectHideFlags: 3
  m_PrefabParentObject: {fileID: 0}
  m_PrefabInternal: {fileID: 0}
  m_Name: 
  m_EffectID: 65ea677ec9c544577bcb2bf433e99c2c
  m_EffectName: Attenuation
  m_MixLevel: 3952cad2c65e94adaaf1f457ab324987
  m_Parameters: []
  m_SendTarget: {fileID: 0}
  m_EnableWetMix: 0
  m_Bypass: 0
--- !u!244 &24437336
AudioMixerEffectController:
  m_ObjectHideFlags: 3
  m_PrefabParentObject: {fileID: 0}
  m_PrefabInternal: {fileID: 0}
  m_Name: 
  m_EffectID: 96dcdac2dd0de4028ad600ee0082af62
  m_EffectName: Attenuation
  m_MixLevel: fb7fb9e14c8bb42229c5dac16532e50d
  m_Parameters: []
  m_SendTarget: {fileID: 0}
  m_EnableWetMix: 0
  m_Bypass: 0
--- !u!245 &24500003
AudioMixerSnapshotController:
  m_ObjectHideFlags: 0
  m_PrefabParentObject: {fileID: 0}
  m_PrefabInternal: {fileID: 0}
  m_Name: VolumeUp
  m_AudioMixer: {fileID: 24100000}
  m_SnapshotID: 5a86393fbd46043aba7c2766c98de25f
  m_FloatValues:
    b2cc95b5d75b5428a8f51d8061ebe927: -0.08374829
    4570643c44b0a4ed280458a81f91cf1e: 0
    1e3a377f854de43b7a3e47634a4b05bc: 9.8
  m_TransitionOverrides: {}
--- !u!245 &24519918
AudioMixerSnapshotController:
  m_ObjectHideFlags: 0
  m_PrefabParentObject: {fileID: 0}
  m_PrefabInternal: {fileID: 0}
  m_Name: VolumeDown
  m_AudioMixer: {fileID: 24100000}
  m_SnapshotID: ab10c3fe369c94025ab432f40d4e1955
  m_FloatValues:
    b2cc95b5d75b5428a8f51d8061ebe927: -80
  m_TransitionOverrides: {}
